"0","exercitationem","126"
"0","laborum","385"
"0","eveniet","134"
"0","sunt","273"
"0","maiores","164"
"0","eum","146"
"0","consectetur","236"
"0","aut","418"
"0","quisquam","364"
"0","vel","249"
"0","itaque","185"
"0","non","327"
"0","nihil","160"
"0","odio","192"
"0","cupiditate","195"
"0","ipsum","230"
"0","nisi","22"
"0","assumenda","237"
"0","velit","210"
"0","voluptate","277"
"0","natus","105"
"0","eaque","302"
"0","illo","80"
"0","sed","286"
"0","et","26"
"0","voluptatibus","379"
"0","labore","322"
"0","veritatis","449"
"0","consequatur","46"
"0","pariatur","386"
"0","est","108"
"0","placeat","288"
"0","aliquid","375"
"0","fuga","55"
"0","rem","449"
"0","necessitatibus","372"
"0","unde","174"
"0","voluptas","252"
"0","debitis","124"
"0","sint","353"
"0","accusantium","104"
"0","provident","444"
"0","repudiandae","296"
"0","qui","70"
"0","aspernatur","298"
"0","laudantium","415"
"0","quo","40"
"0","aliquam","163"
"0","animi","313"
"0","autem","400"
"0","impedit","411"
"0","minima","36"
"0","occaecati","63"
"0","dolores","388"
"0","cumque","335"
"0","iusto","54"
"0","totam","51"
"0","quis","209"
"0","voluptates","209"
"0","sapiente","244"
"0","molestiae","153"
"0","dolorem","309"
"0","quia","476"
"0","voluptatem","205"
"0","omnis","110"
"0","doloribus","255"
"0","ea","187"
"0","corporis","16"
"0","quae","391"
"0","blanditiis","167"
"0","atque","189"
"0","officiis","246"
"0","cum","497"
"0","quibusdam","358"
"0","iure","279"
"0","numquam","199"
"0","rerum","192"
"0","eius","116"
"0","in","270"
"0","illum","276"
"0","ut","490"
"0","tempore","232"
"0","id","492"
"0","similique","363"
"0","iste","188"
"0","sit","96"
"0","inventore","420"
"0","beatae","354"
"0","magnam","460"
"0","recusandae","453"
"0","quod","179"
"0","explicabo","315"
"0","doloremque","191"
"0","vitae","354"
"0","laboriosam","410"
"0","officia","335"
"0","veniam","70"
"0","architecto","87"
"0","nostrum","32"
"0","a","402"
